{
  "images":[
    {
      "id":4261622,
      "name":"Ruby on Rails on Ubuntu 14.04 (Nginx + Unicorn)",
      "distribution":"Ubuntu",
      "slug":"ruby-on-rails",
      "public":true,
      "regions":[
        "nyc2",
        "sgp1",
        "nyc1",
        "ams2",
        "sfo1",
        "ams1",
        "lon1",
        "nyc3",
        "ams3"
      ],
      "created_at":"2014-06-11T05:04:03Z"
    },
    {
      "id":5505824,
      "name":"node-v0.10.30 on Ubuntu 14.04",
      "distribution":"Ubuntu",
      "slug":"node",
      "public":true,
      "regions":[
        "nyc2",
        "ams1",
        "ams2",
        "nyc1",
        "lon1",
        "sfo1",
        "sgp1",
        "nyc3",
        "ams3"
      ],
      "created_at":"2014-08-05T19:01:12Z"
    },
    {
      "id":5505940,
      "name":"Django on Ubuntu 14.04",
      "distribution":"Ubuntu",
      "slug":"django",
      "public":true,
      "regions":[
        "nyc2",
        "ams1",
        "ams2",
        "sfo1",
        "nyc1",
        "sgp1",
        "nyc3",
        "lon1",
        "ams3"
      ],
      "created_at":"2014-08-05T19:07:04Z"
    },
    {
      "id":5506000,
      "name":"LAMP on Ubuntu 14.04",
      "distribution":"Ubuntu",
      "slug":"lamp",
      "public":true,
      "regions":[
        "nyc1",
        "ams1",
        "sfo1",
        "nyc2",
        "ams2",
        "sgp1",
        "lon1",
        "nyc3",
        "ams3"
      ],
      "created_at":"2014-08-05T19:10:27Z"
    },
    {
      "id":5506010,
      "name":"LEMP on Ubuntu 14.04",
      "distribution":"Ubuntu",
      "slug":"lemp",
      "public":true,
      "regions":[
        "nyc1",
        "ams1",
        "sfo1",
        "nyc2",
        "ams2",
        "sgp1",
        "lon1",
        "nyc3",
        "ams3"
      ],
      "created_at":"2014-08-05T19:13:53Z"
    },
    {
      "id":5507160,
      "name":"MEAN on Ubuntu 14.04",
      "distribution":"Ubuntu",
      "slug":"mean",
      "public":true,
      "regions":[
        "nyc2",
        "ams1",
        "ams2",
        "nyc1",
        "lon1",
        "sfo1",
        "sgp1",
        "nyc3",
        "ams3"
      ],
      "created_at":"2014-08-05T20:20:37Z"
    },
    {
      "id":5529453,
      "name":"Dokku v0.2.3 on Ubuntu 14.04 (w/ Docker 1.1.2)",
      "distribution":"Ubuntu",
      "slug":"dokku",
      "public":true,
      "regions":[
        "nyc2",
        "ams1",
        "sfo1",
        "sgp1",
        "ams2",
        "nyc1",
        "lon1",
        "nyc3",
        "ams3"
      ],
      "created_at":"2014-08-06T14:30:26Z"
    },
    {
      "id":4869208,
      "name":"Redmine on Ubuntu 14.04",
      "distribution":"Ubuntu",
      "slug":"redmine",
      "public":true,
      "regions":[
        "ams2",
        "ams1",
        "nyc2",
        "nyc1",
        "sfo1",
        "sgp1",
        "nyc3",
        "lon1",
        "ams3"
      ],
      "created_at":"2014-07-12T12:07:25Z"
    },
    {
      "id":4991187,
      "name":"WordPress on Ubuntu 14.04",
      "distribution":"Ubuntu",
      "slug":"wordpress",
      "public":true,
      "regions":[
        "lon1",
        "ams2",
        "ams1",
        "sgp1",
        "nyc2",
        "sfo1",
        "nyc1",
        "nyc3",
        "ams3"
      ],
      "created_at":"2014-07-17T17:39:05Z"
    },
    {
      "id":5899797,
      "name":"Ghost 0.5.1 on Ubuntu 14.04",
      "distribution":"Ubuntu",
      "slug":"ghost",
      "public":true,
      "regions":[
        "nyc3",
        "ams1",
        "ams2",
        "sgp1",
        "lon1",
        "nyc2",
        "sfo1",
        "nyc1",
        "ams3"
      ],
      "created_at":"2014-09-03T20:23:50Z"
    },
    {
      "id":5900200,
      "name":"Docker 1.2.0 on Ubuntu 14.04",
      "distribution":"Ubuntu",
      "slug":"docker",
      "public":true,
      "regions":[
        "nyc3",
        "ams2",
        "sgp1",
        "ams1",
        "lon1",
        "nyc1",
        "sfo1",
        "nyc2",
        "ams3"
      ],
      "created_at":"2014-09-03T20:51:24Z"
    },
    {
      "id":5900654,
      "name":"GitLab 7.2.1 CE on Ubuntu 14.04",
      "distribution":"Ubuntu",
      "slug":"gitlab",
      "public":true,
      "regions":[
        "nyc3",
        "sgp1",
        "ams1",
        "lon1",
        "ams2",
        "nyc2",
        "sfo1",
        "nyc1",
        "ams3"
      ],
      "created_at":"2014-09-03T21:17:50Z"
    },
    {
      "id":1601,
      "name":"CentOS 5.8 x64",
      "distribution":"CentOS",
      "slug":"centos-5-8-x64",
      "public":true,
      "regions":[
        "nyc1",
        "ams1",
        "sfo1",
        "nyc2",
        "ams2",
        "sgp1",
        "lon1",
        "nyc3",
        "ams3"
      ],
      "created_at":"2012-04-09T11:17:11Z"
    },
    {
      "id":1602,
      "name":"CentOS 5.8 x32",
      "distribution":"CentOS",
      "slug":"centos-5-8-x32",
      "public":true,
      "regions":[
        "nyc1",
        "ams1",
        "sfo1",
        "nyc2",
        "ams2",
        "sgp1",
        "lon1",
        "nyc3",
        "ams3"
      ],
      "created_at":"2012-04-09T11:30:07Z"
    },
    {
      "id":376568,
      "name":"CentOS 6.4 x32",
      "distribution":"CentOS",
      "slug":"centos-6-4-x32",
      "public":true,
      "regions":[
        "nyc1",
        "ams1",
        "sfo1",
        "nyc2",
        "ams2",
        "sgp1",
        "lon1",
        "nyc3",
        "ams3"
      ],
      "created_at":"2013-05-28T21:58:58Z"
    },
    {
      "id":562354,
      "name":"CentOS 6.4 x64",
      "distribution":"CentOS",
      "slug":"centos-6-4-x64",
      "public":true,
      "regions":[
        "nyc1",
        "ams1",
        "sfo1",
        "nyc2",
        "ams2",
        "sgp1",
        "lon1",
        "nyc3",
        "ams3"
      ],
      "created_at":"2013-07-24T20:45:07Z"
    },
    {
      "id":3102721,
      "name":"Fedora 19 x32",
      "distribution":"Fedora",
      "slug":"fedora-19-x32",
      "public":true,
      "regions":[
        "nyc2",
        "ams1",
        "ams2",
        "sfo1",
        "nyc1",
        "sgp1",
        "lon1",
        "nyc3",
        "ams3"
      ],
      "created_at":"2014-04-09T20:56:56Z"
    },
    {
      "id":3102879,
      "name":"Fedora 19 x64",
      "distribution":"Fedora",
      "slug":"fedora-19-x64",
      "public":true,
      "regions":[
        "nyc2",
        "ams1",
        "ams2",
        "nyc1",
        "sfo1",
        "sgp1",
        "lon1",
        "nyc3",
        "ams3"
      ],
      "created_at":"2014-04-09T21:09:59Z"
    },
    {
      "id":3243143,
      "name":"Fedora 20 x32",
      "distribution":"Fedora",
      "slug":"fedora-20-x32",
      "public":true,
      "regions":[
        "nyc2",
        "ams1",
        "ams2",
        "nyc1",
        "sfo1",
        "sgp1",
        "lon1",
        "nyc3",
        "ams3"
      ],
      "created_at":"2014-04-18T21:26:51Z"
    },
    {
      "id":3243145,
      "name":"Fedora 20 x64",
      "distribution":"Fedora",
      "slug":"fedora-20-x64",
      "public":true,
      "regions":[
        "nyc1",
        "ams1",
        "sfo1",
        "nyc2",
        "ams2",
        "sgp1",
        "lon1",
        "nyc3",
        "ams3"
      ],
      "created_at":"2014-04-18T21:27:31Z"
    }
  ],
  "meta":{
    "total":34
  },
  "links":{
    "pages":{
      "last":"https://api.digitalocean.com/v2/images?page=2",
      "next":"https://api.digitalocean.com/v2/images?page=2"
    }
  }
}
